<?xml version="1.0" standalone="no"?>
<!DOCTYPE svg PUBLIC "-//W3C//DTD SVG 1.1//EN" "http://www.w3.org/Graphics/SVG/1.1/DTD/svg11.dtd" >
<!--
2017-3-14: Created with FontForge (http://fontforge.org)
-->
<svg xmlns="http://www.w3.org/2000/svg" xmlns:xlink="http://www.w3.org/1999/xlink" version="1.1">
<metadata>
Created by FontForge 20160405 at Tue Mar 14 08:57:00 2017
 By Apache
Copyright (c) 2017, Apache
</metadata>
<defs>
<font id="Flaticon" horiz-adv-x="512" >
  <font-face 
    font-family="Flaticon"
    font-weight="400"
    font-stretch="normal"
    units-per-em="512"
    panose-1="2 0 5 3 0 0 0 0 0 0"
    ascent="448"
    descent="-64"
    bbox="-0.00270701 -64.001 512.001 448"
    underline-thickness="25.6"
    underline-position="-51.2"
    unicode-range="U+0020-F11C"
  />
    <missing-glyph />
    <glyph glyph-name="space" unicode=" " horiz-adv-x="200" 
 />
    <glyph glyph-name="uniF114" unicode="&#xf114;" 
d="M472.08 366.88c54.1152 -55.3457 53.0811 -145.431 -2.30371 -200.818l-176.34 -176.322c-10.25 -10.25 -23.7168 -15.375 -37.1807 -15.376c-13.4668 0 -26.9307 5.12598 -37.1836 15.377l-177.482 177.48c-26.8203 26.8193 -41.5898 62.4785 -41.5898 100.409
s14.7695 73.5898 41.5898 100.409c26.8242 26.8262 62.4863 41.5986 100.417 41.5986c37.9189 0 73.5752 -14.7725 100.401 -41.5986l13.8584 -13.8594l13.8467 13.8555c26.8281 26.8291 62.4902 41.6016 100.421 41.6016c38.5234 0 74.5859 -15.1846 101.546 -42.7568z
M451.183 184.654c45.25 45.249 46.1914 118.749 2.0957 163.846c-21.9727 22.4707 -51.3584 34.8467 -82.7471 34.8467c-30.9082 0 -59.9668 -12.0381 -81.8262 -33.8965l-53.6582 -53.7002c-2.56641 -2.56836 -5.93164 -3.85352 -9.29883 -3.85352
c-3.36328 0 -6.72461 1.28125 -9.29199 3.84668c-5.13477 5.13184 -5.13867 13.4551 -0.00683594 18.5908l21.2324 21.249l-13.8652 13.8662c-21.8594 21.8584 -50.9131 33.8965 -81.8096 33.8965c-30.9082 0 -59.9678 -12.0381 -81.8262 -33.8965
c-21.8535 -21.8545 -33.8887 -50.9102 -33.8887 -81.8184s12.0352 -59.9639 33.8887 -81.8164l177.483 -177.484c10.25 -10.251 26.9297 -10.251 37.1807 -0.000976562zM466.29 273.597c0.448242 -7.24707 -5.0625 -13.4834 -12.3076 -13.9287
c-0.276367 -0.0175781 -0.551758 -0.0263672 -0.823242 -0.0263672c-6.8916 0 -12.6777 5.36523 -13.1094 12.3359c-1.04883 16.9756 -8.23633 32.9346 -20.2412 44.9385c-8.51465 8.51465 -19.0547 14.6963 -30.4814 17.875
c-6.99512 1.94629 -11.0879 9.19434 -9.14258 16.1875c1.94629 6.99512 9.19336 11.0889 16.1885 9.14258c15.7812 -4.39355 30.3135 -12.9033 42.0264 -24.6152c16.541 -16.543 26.4453 -38.5293 27.8906 -61.9092z" />
    <glyph glyph-name="uniF107" unicode="&#xf107;" 
d="M160.348 -33.4385c-3.17578 -3.17578 -7.14453 -4.7627 -11.5107 -4.7627c-4.36523 0 -8.33496 1.58691 -11.5098 4.7627c-6.35059 6.35059 -6.35059 16.6699 0 23.0195l202.419 202.419l-202.419 202.419c-6.35059 6.34961 -6.35059 16.6689 0 23.0195
s16.6699 6.35059 23.0205 0l213.929 -213.929c6.34961 -6.34961 6.34961 -16.6699 0 -23.0195z" />
    <glyph glyph-name="uniF10B" unicode="&#xf10b;" 
d="M292.752 364.369c-23.0713 0 -41.8076 18.7197 -41.8076 41.8184c0 23.0879 18.7373 41.8125 41.8076 41.8125c23.1084 0 41.8311 -18.7246 41.8311 -41.8115c0 -23.0996 -18.7227 -41.8193 -41.8311 -41.8193zM414.379 252.776
c11.6221 0 21.0449 -9.42188 21.0449 -21.0479c0 -11.625 -9.42188 -21.0488 -21.0449 -21.0488h-82.0879c-6.8418 0 -13.2725 3.33105 -17.2012 8.92969l-20.0967 28.5303l-12.3818 -94.5107l33.3818 -46.3975c2.80957 -3.90527 4.44043 -8.53613 4.7207 -13.3438
l7.33398 -131.224c0.771484 -13.9277 -9.88477 -25.8496 -23.8145 -26.624c-0.475586 -0.0234375 -0.970703 -0.0400391 -1.42773 -0.0400391c-13.3027 0 -24.4551 10.4004 -25.2109 23.8516l-6.9209 123.864l-27.2988 37.9365l-22.7402 -79.7861
c-1.84082 -6.44629 -6.16699 -11.8955 -12.0225 -15.1533c-3.78223 -2.10449 -8.00879 -3.18164 -12.2676 -3.18164c-2.33594 0 -4.66797 0.320312 -6.9375 0.969727l-94.5029 27.0332c-13.418 3.84082 -21.1807 17.8262 -17.3506 31.2363
c3.85059 13.4092 17.8584 21.1465 31.2266 17.3398l70.2012 -20.0869l19.3691 67.9062l6.64453 50.6875l-61.0713 60.0537c-4.55762 4.47168 -6.84375 10.7803 -6.1875 17.127c0.645508 6.35645 4.13184 12.0703 9.48926 15.5479c0 0 86.4873 55.9043 87.9795 56.8652
c8.89062 5.72168 20.998 10.4316 32.3105 8.95215c10.8857 -1.43262 20.7695 -7.12109 27.459 -15.8281c6.69434 -8.70801 9.6543 -19.7158 8.22168 -30.6025l-0.12793 -0.977539l40.1387 -56.9785h71.1719zM211.852 250.902l4.60742 35.124l-24.3076 -15.7441z" />
    <glyph glyph-name="uniF10C" unicode="&#xf10c;" 
d="M380.204 257.183c-3.7334 -2.31641 -8.68262 -1.16699 -10.9971 2.56641c-2.31836 3.73242 -1.16797 8.68164 2.56445 10.998l127.973 80.043c3.7334 2.33301 8.66504 1.16699 10.998 -2.56641c0.817383 -1.31641 1.20117 -2.76562 1.20117 -4.2168h0.0175781v-304.042
c0 -2.99902 -1.66602 -5.61523 -4.11621 -6.99902l-143.489 -95.6406c-2.38379 -1.58398 -5.31543 -1.69824 -7.75 -0.582031v-0.0175781l-203.882 94.126l-140.256 -93.5088c-3.66602 -2.45117 -8.64941 -1.4502 -11.083 2.21387
c-1.0498 1.58496 -1.46582 3.39941 -1.31641 5.14941l0.100586 301.194c0 2.91602 1.56641 5.46582 3.91699 6.84961l-0.0175781 0.0166016l111.875 66.0947c3.78223 2.23242 8.68262 0.982422 10.9316 -2.7998c2.2334 -3.7998 0.983398 -8.69922 -2.81641 -10.9326
l-107.957 -63.7949l-0.0996094 -282.41l131.539 87.709l0.0166016 -0.0166016c2.2334 1.5 5.16699 1.81641 7.7666 0.617188l203.932 -94.1104l136.706 91.1094v285.361zM255.981 448c30.9141 0 58.9121 -12.5488 79.1758 -32.8135l0.0175781 -0.0166016
l0.0175781 0.0166016c20.2646 -20.249 32.7969 -48.2803 32.7969 -79.2109c0 -31.3467 -17.5156 -68.5938 -39.6816 -103.624c-21.8145 -34.498 -47.9629 -66.7285 -66.1611 -88.9424c-2.80078 -3.41602 -7.84863 -3.91699 -11.249 -1.11816
c-0.599609 0.500977 -1.11621 1.06738 -1.5332 1.68359c-18.2822 22.3174 -44.2637 54.4131 -65.7783 88.4258c-22.1475 35.0479 -39.6299 72.2773 -39.6299 103.593c0 30.9307 12.5488 58.9443 32.7979 79.209c20.2822 20.249 48.2979 32.7979 79.2275 32.7979v0z
M323.908 403.887c-17.3809 17.3486 -41.3955 28.0977 -67.9102 28.0977s-50.5293 -10.749 -67.8945 -28.1143c-17.3662 -17.3652 -28.1309 -41.3799 -28.1309 -67.877c0 -27.8486 16.3818 -62.2461 37.1309 -95.0928c18.8984 -29.8809 41.4297 -58.4121 58.8613 -79.8105
c17.4648 21.4502 40.0625 50.0469 58.8779 79.7783c20.7646 32.8135 37.1641 67.2441 37.1641 95.125c0 26.5146 -10.749 50.5293 -28.1133 67.8945l0.0146484 -0.000976562v0zM255.981 383.989c13.249 0 25.2812 -5.38281 33.9473 -14.0654v-0.0332031
c8.68164 -8.68262 14.0654 -20.6982 14.0654 -33.9141s-5.38477 -25.2314 -14.0654 -33.9131l-0.0332031 -0.0341797c-8.68359 -8.68164 -20.6992 -14.0645 -33.9141 -14.0645c-13.248 0 -25.2812 5.38281 -33.9482 14.0645
c-8.68164 8.66699 -14.0645 20.6992 -14.0645 33.9482c0 13.2324 5.38281 25.2314 14.0645 33.9141v0.0332031c8.68457 8.68066 20.6992 14.0645 33.9482 14.0645v0zM278.629 358.624l-0.0175781 -0.0175781c-5.78223 5.7832 -13.7979 9.36621 -22.6318 9.36621
c-8.83203 0 -16.8486 -3.58301 -22.6309 -9.36621l-0.0175781 0.0175781c-5.7666 -5.79883 -9.34961 -13.7988 -9.34961 -22.6484c0 -8.83203 3.58301 -16.8486 9.36719 -22.6309c5.78223 -5.7832 13.7988 -9.36621 22.6309 -9.36621
c8.83398 0 16.832 3.56738 22.6318 9.33301l0.0332031 0.0332031c5.76758 5.78418 9.33301 13.7998 9.33301 22.6318c0.0175781 8.84863 -3.56543 16.8652 -9.34863 22.6475zM367.938 -56.0098c0 -4.39941 -3.56641 -7.96387 -7.96387 -7.96387
c-4.40039 0 -7.9668 3.56641 -7.9668 7.96387l0.0341797 287.994c0 4.39941 3.56738 7.96582 7.96484 7.96582c4.40039 0 7.96484 -3.56641 7.96484 -7.96582zM159.905 43.4658c0 -4.40039 -3.56543 -7.96582 -7.96582 -7.96582
c-4.39941 0 -7.96582 3.56641 -7.96582 7.96582l0.0498047 188.535c0 4.40039 3.56641 7.96582 7.96582 7.96582s7.96582 -3.56543 7.96582 -7.96582z" />
    <glyph glyph-name="uniF117" unicode="&#xf117;" 
d="M512 403.483l-211.483 -211.483l211.483 -211.483l-44.5166 -44.5166l-211.483 211.483l-211.483 -211.483l-44.5166 44.5166l211.483 211.483l-211.483 211.483l44.5166 44.5166l211.483 -211.483l211.483 211.483z" />
    <glyph glyph-name="uniF11B" unicode="&#xf11b;" 
d="M507.079 384.607c-7.79395 -23.3779 -20.9434 -44.3262 -39.4473 -62.8418l-58.8145 -58.8125l58.4473 -254.251c1.21191 -4.62793 -0.250977 -8.64258 -4.38379 -12.0498l-46.7676 -35.0674c-1.70312 -1.45898 -4.02051 -2.19043 -6.93652 -2.19043
c-0.977539 0 -1.83105 0.119141 -2.55762 0.363281c-3.65527 0.731445 -6.21191 2.67969 -7.6709 5.8457l-101.925 185.587l-94.6152 -94.623l19.3623 -70.8691c1.21582 -4.13867 0.241211 -7.91406 -2.9248 -11.3281l-35.0654 -35.0635
c-2.19336 -2.18945 -4.99219 -3.2832 -8.40332 -3.2832h-0.730469c-3.65234 0.495117 -6.57617 2.07031 -8.76953 4.75391l-69.04 92.0527l-92.0557 69.0381c-2.68164 1.70801 -4.26465 4.50977 -4.74805 8.40625c-0.243164 3.16309 0.850586 6.20898 3.28613 9.125
l35.0674 35.4326c2.19238 2.19434 4.99121 3.28809 8.40234 3.28809c1.46191 0 2.43359 -0.123047 2.91992 -0.368164l70.8682 -19.3564l94.6172 94.6162l-185.576 101.92c-3.40918 1.9502 -5.48047 4.86816 -6.21094 8.76953
c-0.489258 3.89648 0.610352 7.18359 3.28613 9.86523l46.7617 46.7598c3.40723 3.16504 7.06055 4.13867 10.957 2.91992l242.923 -58.082l58.4463 58.4512c18.5117 18.5078 39.457 31.6572 62.8369 39.4512c23.3838 7.7793 41.4062 6.32324 54.0693 -4.39355
c10.7236 -12.6689 12.1807 -30.6875 4.3916 -54.0654z" />
    <glyph glyph-name="uniF110" unicode="&#xf110;" 
d="M255.159 162.154c-75.665 0 -137.037 61.793 -137.037 137.037c0 75.2451 61.373 136.618 137.037 136.618c75.665 0 137.038 -60.9531 137.038 -136.618c0 -75.6641 -61.3721 -137.037 -137.038 -137.037zM255.159 400.079
c-55.4883 0 -100.887 -45.3984 -100.887 -100.887s45.3994 -100.887 100.887 -100.887s100.888 45.3975 100.888 100.886s-45.4004 100.888 -100.888 100.888zM18.0752 -51.8096c-10.0889 0 -18.0752 7.98633 -18.0752 18.0752c0 95.002 77.3467 171.928 171.928 171.928
h168.145c95.002 0 171.928 -77.3457 171.928 -171.928c0 -10.0889 -7.98633 -18.0752 -18.0752 -18.0752h-475.85zM171.928 102.043c-68.9385 0 -125.688 -51.7051 -134.516 -117.701h437.176c-8.82812 66.417 -65.5771 117.701 -134.516 117.701h-168.145z" />
    <glyph glyph-name="uniF119" unicode="&#xf119;" 
d="M485.642 248.889c14.5352 0 26.3584 -11.8232 26.3584 -26.3584v-61.0605c0 -14.5352 -11.8232 -26.3584 -26.3584 -26.3584h-47.9004c-7.69922 0 -14.0615 -4.23828 -17 -11.3496c-2.93945 -7.11133 -1.45117 -14.6016 3.98145 -20.0439l33.8682 -33.8584
c4.97754 -4.9873 7.71777 -11.6055 7.71777 -18.6406c0 -7.04492 -2.74023 -13.6719 -7.71777 -18.6494l-43.1689 -43.1699c-9.95605 -9.95508 -27.3164 -9.97461 -37.291 0l-33.8584 33.8682c-5.44238 5.43262 -12.9229 6.94043 -20.0439 3.98242
c-7.11133 -2.94922 -11.3486 -9.29199 -11.3486 -16.9912v-47.9004c0 -14.5352 -11.8242 -26.3584 -26.3594 -26.3584h-61.0508c-14.5352 0 -26.3584 11.8232 -26.3584 26.3584v47.9004c0 7.69922 -4.23828 14.042 -11.3496 16.9912
c-7.12012 2.94824 -14.6016 1.4502 -20.0439 -3.98242l-33.8584 -33.8682c-9.97461 -9.9834 -27.3252 -9.96484 -37.29 0l-43.1699 43.1699c-4.97754 4.98633 -7.71777 11.6045 -7.71777 18.6494c0 7.03516 2.74023 13.6631 7.71777 18.6406l33.8682 33.8584
c5.43262 5.44238 6.93066 12.9326 3.98242 20.0439c-2.94922 7.11133 -9.29199 11.3496 -16.9912 11.3496h-47.9004c-14.5352 0 -26.3584 11.8232 -26.3584 26.3682v61.0508c0 14.5352 11.8232 26.3584 26.3584 26.3584h47.9004c7.69922 0 14.0518 4.23828 16.9912 11.3496
s1.4502 14.6016 -3.98242 20.0439l-33.8682 33.8584c-4.97754 4.9873 -7.71777 11.6055 -7.71777 18.6406c0 7.04492 2.74023 13.6719 7.71777 18.6494l43.1699 43.1699c9.95508 9.95508 27.3154 9.97461 37.29 0l33.8584 -33.8584
c5.44238 -5.43359 12.9521 -6.95996 20.0439 -3.99219c7.11133 2.94922 11.3496 9.29199 11.3496 16.9912v47.9004c0 14.5352 11.8232 26.3584 26.3584 26.3584h61.0605c14.5352 0 26.3584 -11.8232 26.3584 -26.3584v-47.9004c0 -7.69922 4.23828 -14.042 11.3496 -16.9912
c7.0918 -2.95801 14.6016 -1.44141 20.0439 3.99219l33.8584 33.8584c9.97461 9.97461 27.335 9.95508 37.29 0l43.1699 -43.1699c4.97754 -4.98633 7.71777 -11.6045 7.71777 -18.6494c0 -7.03516 -2.74023 -13.6631 -7.71777 -18.6406l-33.8682 -33.8584
c-5.43262 -5.44238 -6.93066 -12.9326 -3.98242 -20.0439c2.94922 -7.11133 9.29199 -11.3496 16.9912 -11.3496h47.9004zM493.037 161.47v61.0605c0 4.07715 -3.31836 7.39551 -7.39551 7.38574h-47.9004c-15.3984 0 -28.625 8.83691 -34.5127 23.0596
c-5.89746 14.2217 -2.78809 29.8281 8.09668 40.7129l33.8682 33.8584c2.8916 2.88281 2.8916 7.57617 0 10.4678l-43.1689 43.1689c-2.87305 2.89258 -7.56641 2.89258 -10.4678 0l-33.8584 -33.8584c-10.8848 -10.8848 -26.4727 -13.9941 -40.7129 -8.09668
c-14.2227 5.8877 -23.0596 19.1143 -23.0596 34.5127v47.9004c0 4.07715 -3.31836 7.39551 -7.40527 7.39551h-61.0508c-4.07715 0 -7.39551 -3.31836 -7.39551 -7.39551v-47.9004c0 -15.3984 -8.83691 -28.625 -23.0596 -34.5029
c-14.2402 -5.89746 -29.8379 -2.77832 -40.7129 8.09668l-33.8584 33.8584c-2.8916 2.8916 -7.58496 2.8916 -10.4678 0l-43.1689 -43.1689c-2.8916 -2.88281 -2.8916 -7.57617 0 -10.4678l33.8682 -33.8584c10.8936 -10.8848 13.9941 -26.4912 8.09668 -40.7129
c-5.8877 -14.2227 -19.1143 -23.0596 -34.5127 -23.0596h-47.9004c-4.07715 0 -7.39551 -3.31836 -7.39551 -7.39551v-61.0605c0 -4.07715 3.31836 -7.39551 7.39551 -7.39551h47.9004c15.3984 0 28.625 -8.83691 34.5127 -23.0498
c5.89746 -14.2217 2.78809 -29.8281 -8.09668 -40.7129l-33.8682 -33.8584c-2.8916 -2.88281 -2.8916 -7.57617 0 -10.4678l43.1689 -43.1689c2.87305 -2.88281 7.56641 -2.90137 10.4678 0l33.8584 33.8672c7.24414 7.24414 16.5645 11.0371 26.1787 11.0371
c4.85449 0 9.76562 -0.967773 14.5342 -2.94922c14.2227 -5.8877 23.0596 -19.1143 23.0596 -34.5127v-47.9004c0 -4.07715 3.31836 -7.39551 7.39551 -7.39551h61.0605c4.07715 0 7.39551 3.31836 7.39551 7.39551v47.9004c0 15.3984 8.83691 28.625 23.0596 34.5127
c14.2217 5.87891 29.8184 2.79688 40.7129 -8.09668l33.8584 -33.8682c2.8916 -2.90137 7.58496 -2.88281 10.4678 0l43.1689 43.1689c2.8916 2.88281 2.8916 7.57617 0 10.4678l-33.8682 33.8584c-10.8936 10.8848 -13.9941 26.4912 -8.09668 40.7129
c5.8877 14.2227 19.1143 23.0596 34.5127 23.0596h47.9004c4.07715 0 7.39551 3.31836 7.39551 7.39551zM256 277.333c47.0566 0 85.333 -38.2764 85.333 -85.333s-38.2764 -85.333 -85.333 -85.333s-85.333 38.2764 -85.333 85.333s38.2764 85.333 85.333 85.333z
M256 125.63c36.5889 0 66.3701 29.7812 66.3701 66.3701s-29.7812 66.3701 -66.3701 66.3701s-66.3701 -29.7812 -66.3701 -66.3701s29.7812 -66.3701 66.3701 -66.3701z" />
    <glyph glyph-name="uniF115" unicode="&#xf115;" 
d="M512 -23.5l-40.5 -40.5l-151.155 151.155c-33.4824 -25.0908 -74.8896 -40.1475 -119.849 -40.1475c-110.56 0 -200.496 89.9365 -200.496 200.496s89.9365 200.496 200.496 200.496s200.496 -89.9365 200.496 -200.496c0 -44.959 -15.0566 -86.3662 -40.1475 -119.849z
M19.0947 247.504c0 -100.028 81.373 -181.401 181.401 -181.401s181.401 81.373 181.401 181.401s-81.373 181.401 -181.401 181.401s-181.401 -81.373 -181.401 -181.401z" />
    <glyph glyph-name="uniF116" unicode="&#xf116;" 
d="M185.379 231.725c0 4.875 3.95312 8.82715 8.82812 8.82715s8.82715 -3.95215 8.82715 -8.82715c0 -4.87598 -3.95215 -8.82812 -8.82715 -8.82812s-8.82812 3.95215 -8.82812 8.82812zM247.173 231.725c0 4.875 3.95215 8.82715 8.82715 8.82715
s8.82715 -3.95215 8.82715 -8.82715c0 -4.87598 -3.95215 -8.82812 -8.82715 -8.82812s-8.82715 3.95215 -8.82715 8.82812zM308.966 231.725c0 4.875 3.95215 8.82715 8.82715 8.82715s8.82812 -3.95215 8.82812 -8.82715c0 -4.87598 -3.95312 -8.82812 -8.82812 -8.82812
s-8.82715 3.95215 -8.82715 8.82812zM370.759 231.725c0 4.875 3.95215 8.82715 8.82715 8.82715c4.87598 0 8.82812 -3.95215 8.82812 -8.82715c0 -4.87598 -3.95215 -8.82812 -8.82812 -8.82812c-4.875 0 -8.82715 3.95215 -8.82715 8.82812zM432.552 231.725
c0 4.875 3.95215 8.82715 8.82715 8.82715c4.87598 0 8.82812 -3.95215 8.82812 -8.82715c0 -4.87598 -3.95215 -8.82812 -8.82812 -8.82812c-4.875 0 -8.82715 3.95215 -8.82715 8.82812zM61.793 161.104c0 4.875 3.95215 8.82715 8.82812 8.82715
c4.875 0 8.82715 -3.95215 8.82715 -8.82715s-3.95215 -8.82812 -8.82715 -8.82812c-4.87598 0 -8.82812 3.95312 -8.82812 8.82812zM123.586 161.104c0 4.875 3.95215 8.82715 8.82812 8.82715c4.875 0 8.82715 -3.95215 8.82715 -8.82715
s-3.95215 -8.82812 -8.82715 -8.82812c-4.87598 0 -8.82812 3.95312 -8.82812 8.82812zM185.379 161.104c0 4.875 3.95312 8.82715 8.82812 8.82715s8.82715 -3.95215 8.82715 -8.82715s-3.95215 -8.82812 -8.82715 -8.82812s-8.82812 3.95312 -8.82812 8.82812z
M247.173 161.104c0 4.875 3.95215 8.82715 8.82715 8.82715s8.82715 -3.95215 8.82715 -8.82715s-3.95215 -8.82812 -8.82715 -8.82812s-8.82715 3.95312 -8.82715 8.82812zM308.966 161.104c0 4.875 3.95215 8.82715 8.82715 8.82715s8.82812 -3.95215 8.82812 -8.82715
s-3.95312 -8.82812 -8.82812 -8.82812s-8.82715 3.95312 -8.82715 8.82812zM370.759 161.104c0 4.875 3.95215 8.82715 8.82715 8.82715c4.87598 0 8.82812 -3.95215 8.82812 -8.82715s-3.95215 -8.82812 -8.82812 -8.82812c-4.875 0 -8.82715 3.95312 -8.82715 8.82812z
M432.552 161.104c0 4.875 3.95215 8.82715 8.82715 8.82715c4.87598 0 8.82812 -3.95215 8.82812 -8.82715s-3.95215 -8.82812 -8.82812 -8.82812c-4.875 0 -8.82715 3.95312 -8.82715 8.82812zM61.793 99.3105c0 4.875 3.95215 8.82715 8.82812 8.82715
c4.875 0 8.82715 -3.95215 8.82715 -8.82715c0 -4.87598 -3.95215 -8.82812 -8.82715 -8.82812c-4.87598 0 -8.82812 3.95215 -8.82812 8.82812zM123.586 99.3105c0 4.875 3.95215 8.82715 8.82812 8.82715c4.875 0 8.82715 -3.95215 8.82715 -8.82715
c0 -4.87598 -3.95215 -8.82812 -8.82715 -8.82812c-4.87598 0 -8.82812 3.95215 -8.82812 8.82812zM185.379 99.3105c0 4.875 3.95312 8.82715 8.82812 8.82715s8.82715 -3.95215 8.82715 -8.82715c0 -4.87598 -3.95215 -8.82812 -8.82715 -8.82812
s-8.82812 3.95215 -8.82812 8.82812zM247.173 99.3105c0 4.875 3.95215 8.82715 8.82715 8.82715s8.82715 -3.95215 8.82715 -8.82715c0 -4.87598 -3.95215 -8.82812 -8.82715 -8.82812s-8.82715 3.95215 -8.82715 8.82812zM308.966 99.3105
c0 4.875 3.95215 8.82715 8.82715 8.82715s8.82812 -3.95215 8.82812 -8.82715c0 -4.87598 -3.95312 -8.82812 -8.82812 -8.82812s-8.82715 3.95215 -8.82715 8.82812zM370.759 99.3105c0 4.875 3.95215 8.82715 8.82715 8.82715
c4.87598 0 8.82812 -3.95215 8.82812 -8.82715c0 -4.87598 -3.95215 -8.82812 -8.82812 -8.82812c-4.875 0 -8.82715 3.95215 -8.82715 8.82812zM432.552 99.3105c0 4.875 3.95215 8.82715 8.82715 8.82715c4.87598 0 8.82812 -3.95215 8.82812 -8.82715
c0 -4.87598 -3.95215 -8.82812 -8.82812 -8.82812c-4.875 0 -8.82715 3.95215 -8.82715 8.82812zM61.793 28.6895c0 4.87598 3.95215 8.82812 8.82812 8.82812c4.875 0 8.82715 -3.95215 8.82715 -8.82812c0 -4.875 -3.95215 -8.82715 -8.82715 -8.82715
c-4.87598 0 -8.82812 3.95215 -8.82812 8.82715zM123.586 28.6895c0 4.87598 3.95215 8.82812 8.82812 8.82812c4.875 0 8.82715 -3.95215 8.82715 -8.82812c0 -4.875 -3.95215 -8.82715 -8.82715 -8.82715c-4.87598 0 -8.82812 3.95215 -8.82812 8.82715zM185.379 28.6895
c0 4.87598 3.95312 8.82812 8.82812 8.82812s8.82715 -3.95215 8.82715 -8.82812c0 -4.875 -3.95215 -8.82715 -8.82715 -8.82715s-8.82812 3.95215 -8.82812 8.82715zM247.173 28.6895c0 4.87598 3.95215 8.82812 8.82715 8.82812s8.82715 -3.95215 8.82715 -8.82812
c0 -4.875 -3.95215 -8.82715 -8.82715 -8.82715s-8.82715 3.95215 -8.82715 8.82715zM308.966 28.6895c0 4.87598 3.95215 8.82812 8.82715 8.82812s8.82812 -3.95215 8.82812 -8.82812c0 -4.875 -3.95312 -8.82715 -8.82812 -8.82715s-8.82715 3.95215 -8.82715 8.82715z
M229.518 443.586c21.3096 0 39.1416 -15.1924 43.2461 -35.3105h-18.3877c-3.65527 10.2578 -13.3652 17.6553 -24.8584 17.6553c-4.88184 0 -8.82812 3.94629 -8.82812 8.82812s3.94629 8.82715 8.82812 8.82715zM282.482 443.586
c21.3105 0 39.1416 -15.1924 43.2471 -35.3105h-18.3887c-3.6543 10.2578 -13.3643 17.6553 -24.8584 17.6553c-4.88086 0 -8.82715 3.94629 -8.82715 8.82812s3.94629 8.82715 8.82715 8.82715zM335.448 443.586c21.3096 0 39.1416 -15.1924 43.2461 -35.3105h-18.3877
c-3.6543 10.2578 -13.3652 17.6553 -24.8584 17.6553c-4.88184 0 -8.82715 3.94629 -8.82715 8.82812s3.94531 8.82715 8.82715 8.82715zM378.694 408.275h133.306v-97.1025v-17.6553v-353.104h-512v353.104v17.6553v97.1025h123.586h9.71973
c4.10449 20.1182 21.9277 35.3105 43.2461 35.3105s39.1416 -15.1924 43.2461 -35.3105h-18.3877c-3.6543 10.2578 -13.3652 17.6553 -24.8584 17.6553s-21.2041 -7.39746 -24.8584 -17.6553h7.20312h42.5137c0.988281 -2.77148 1.62402 -5.71094 1.62402 -8.82715
c0 -14.6006 -11.8818 -26.4824 -26.4824 -26.4824c-4.88184 0 -8.82715 -3.94629 -8.82715 -8.82812s3.94531 -8.82715 8.82715 -8.82715c24.3379 0 44.1377 19.7998 44.1377 44.1377c0 3.01953 -0.308594 5.97656 -0.891602 8.82715h34.5781
c0.988281 -2.77148 1.62402 -5.71094 1.62402 -8.82715c0 -14.6006 -11.8818 -26.4824 -26.4824 -26.4824c-4.88184 0 -8.82812 -3.94629 -8.82812 -8.82812s3.94629 -8.82715 8.82812 -8.82715c24.3369 0 44.1377 19.7998 44.1377 44.1377
c0 3.01953 -0.308594 5.97656 -0.891602 8.82715h34.5771c0.989258 -2.77148 1.625 -5.71094 1.625 -8.82715c0 -14.6006 -11.8818 -26.4824 -26.4834 -26.4824c-4.88086 0 -8.82715 -3.94629 -8.82715 -8.82812s3.94629 -8.82715 8.82715 -8.82715
c24.3379 0 44.1387 19.7998 44.1387 44.1377c0 3.01953 -0.30957 5.97656 -0.891602 8.82715h34.5771c0.989258 -2.77148 1.62402 -5.71094 1.62402 -8.82715c0 -14.6006 -11.8818 -26.4824 -26.4824 -26.4824c-4.88184 0 -8.82715 -3.94629 -8.82715 -8.82812
s3.94531 -8.82715 8.82715 -8.82715c24.3379 0 44.1377 19.7998 44.1377 44.1377c0 3.01953 -0.308594 5.97656 -0.891602 8.82715zM494.345 -41.9307v335.448h-476.689v-335.448h476.689z" />
    <glyph glyph-name="uniF106" unicode="&#xf106;" 
d="M165.038 77.0732c4.51465 0 8.16992 -3.65723 8.16992 -8.16992s-3.65625 -8.16992 -8.16992 -8.16992h-16.3398c-4.5127 0 -8.16992 3.65723 -8.16992 8.16992s3.65723 8.16992 8.16992 8.16992h16.3398zM412.868 -20.9688c4.5127 0 8.16992 -3.65723 8.16992 -8.16992
c0 -4.51367 -3.65723 -8.16992 -8.16992 -8.16992h-16.3408c-4.5127 0 -8.16992 3.65625 -8.16992 8.16992c0 4.5127 3.65723 8.16992 8.16992 8.16992h16.3408zM462.433 11.7119c4.51367 0 8.16992 -3.65723 8.16992 -8.16992s-3.65625 -8.16992 -8.16992 -8.16992
h-16.3398c-4.5127 0 -8.16992 3.65723 -8.16992 8.16992s3.65723 8.16992 8.16992 8.16992h16.3398zM363.302 44.3926c4.5127 0 8.16992 -3.65723 8.16992 -8.16992c0 -4.51367 -3.65723 -8.1709 -8.16992 -8.1709h-16.3398c-4.51367 0 -8.16992 3.65723 -8.16992 8.1709
c0 4.5127 3.65625 8.16992 8.16992 8.16992h16.3398zM65.9072 44.3926c4.5127 0 8.16992 -3.65723 8.16992 -8.16992c0 -4.51367 -3.65723 -8.1709 -8.16992 -8.1709h-16.3398c-4.51367 0 -8.16992 3.65723 -8.16992 8.1709c0 4.5127 3.65625 8.16992 8.16992 8.16992
h16.3398zM380.296 182.533c2.88379 -3.46875 2.41211 -8.62109 -1.05859 -11.5078c-3.46973 -2.88379 -8.62012 -2.41211 -11.5068 1.05762c-27.6738 33.2764 -69.4434 53.1416 -111.731 53.1416s-84.0566 -19.8662 -111.73 -53.1426
c-1.61719 -1.94238 -3.94434 -2.94531 -6.28711 -2.94531c-1.84082 0 -3.69434 0.619141 -5.21973 1.8877c-3.46973 2.88477 -3.94336 8.03711 -1.05762 11.5068c28.9639 34.8242 71.8809 56.4199 116.125 58.8057v113.789
c-18.624 -3.79492 -32.6807 -20.2998 -32.6807 -40.0283c0 -4.5127 -3.65723 -8.16992 -8.16992 -8.16992s-8.16992 3.65723 -8.16992 8.16992c0 23.9668 14.8262 44.5244 35.7822 53.0186c-4.21191 1.44238 -8.6748 2.20117 -13.2539 2.20117
c-10.9043 0 -21.1641 -4.25195 -28.8867 -11.9756c-3.19043 -3.19043 -8.36328 -3.19043 -11.5547 0c-3.19141 3.19141 -3.19141 8.36328 0 11.5547c10.8086 10.8105 25.1709 16.7627 40.4414 16.7627c7.78027 0 15.3213 -1.55273 22.2803 -4.49805
c-6.67383 13.499 -20.5859 22.8086 -36.6377 22.8086c-4.5127 0 -8.16992 3.65723 -8.16992 8.16992c0 4.51367 3.65723 8.16992 8.16992 8.16992c20.7773 0 39.0039 -11.1387 49.0215 -27.7578c10.0166 16.6182 28.2432 27.7578 49.0205 27.7578
c4.5127 0 8.16992 -3.65625 8.16992 -8.16992c0 -4.5127 -3.65723 -8.16992 -8.16992 -8.16992c-16.0508 0 -29.9639 -9.30957 -36.6377 -22.8086c6.95996 2.94531 14.501 4.49805 22.2812 4.49805c15.2686 0 29.6309 -5.95215 40.4404 -16.7627
c3.19141 -3.19043 3.19141 -8.3623 0 -11.5547c-1.5957 -1.59473 -3.6875 -2.3916 -5.77832 -2.3916c-2.08984 0 -4.18164 0.796875 -5.77734 2.3916c-7.72266 7.72266 -17.9824 11.9756 -28.8867 11.9756c-4.5791 0 -9.04297 -0.759766 -13.2539 -2.20117
c20.9561 -8.49414 35.7822 -29.0518 35.7822 -53.0186c0 -4.5127 -3.65723 -8.16992 -8.16992 -8.16992s-8.16992 3.65723 -8.16992 8.16992c0 19.7285 -14.0566 36.2334 -32.6807 40.0283v-113.789c44.2441 -2.38477 87.1621 -23.9785 116.125 -58.8037zM507.399 172.659
c4.05664 -1.96973 5.75 -6.85742 3.77734 -10.918c-10.5146 -21.6553 -32.8555 -35.6475 -56.9141 -35.6475c-19.4092 0 -37.6992 9.10547 -49.5654 23.9961c-11.8682 -14.8906 -30.1572 -23.9961 -49.5664 -23.9961s-37.6992 9.10547 -49.5664 23.9961
c-11.8682 -14.8906 -30.1572 -23.9961 -49.5664 -23.9961c-19.4082 0 -37.6982 9.10547 -49.5654 23.9961c-11.8682 -14.8906 -30.1572 -23.9961 -49.5664 -23.9961s-37.6992 9.10547 -49.5664 23.9961c-11.8672 -14.8906 -30.1562 -23.9961 -49.5654 -23.9961
c-24.0586 0 -46.3984 13.9922 -56.9141 35.6475c-1.97168 4.05957 -0.279297 8.94727 3.7793 10.918c4.06055 1.97363 8.94629 0.279297 10.917 -3.7793c7.92383 -16.3135 24.1006 -26.4453 42.2188 -26.4453s34.2949 10.1318 42.2168 26.4453
c1.36621 2.8125 4.21973 4.60059 7.34863 4.60059c3.12988 0 5.9834 -1.78711 7.34961 -4.60059c7.92285 -16.3125 24.0986 -26.4453 42.2168 -26.4453s34.2949 10.1318 42.2168 26.4453c1.36621 2.8125 4.2207 4.60059 7.34961 4.60059s5.98242 -1.78711 7.34863 -4.60059
c7.92285 -16.3125 24.0996 -26.4453 42.2168 -26.4453c18.1182 0 34.2959 10.1318 42.2178 26.4453c1.36621 2.8125 4.21973 4.60059 7.34863 4.60059s5.9834 -1.78711 7.34961 -4.60059c7.92285 -16.3125 24.0986 -26.4453 42.2168 -26.4453
s34.2949 10.1318 42.2168 26.4453c1.36621 2.8125 4.21973 4.60059 7.34961 4.60059c3.12891 0 5.98242 -1.78711 7.34863 -4.60059c7.92285 -16.3125 24.0986 -26.4453 42.2168 -26.4453s34.2949 10.1318 42.2178 26.4453c1.9707 4.05762 6.85547 5.75293 10.918 3.7793z
" />
    <glyph glyph-name="uniF10F" unicode="&#xf10f;" 
d="M438.661 448c21.668 0 39.3936 -17.7256 39.3936 -39.373v-433.254c0 -21.6582 -17.7363 -39.373 -39.3936 -39.373h-340.767c-21.668 0 -39.3936 17.7148 -39.3828 39.3936v24.5762h-19.9482c-2.53906 0 -4.61816 2.06836 -4.61816 4.59766v50.7188
c0 2.53906 2.0791 4.61816 4.61816 4.61816h19.9482v48.1172h-19.9482c-2.53906 0 -4.61816 2.06836 -4.61816 4.6084v50.7285c0 2.54004 2.0791 4.59766 4.61816 4.59766h19.9482v48.1084h-19.9482c-2.53906 0 -4.61816 2.06836 -4.61816 4.60742v50.7295
c0 2.53906 2.0791 4.60742 4.61816 4.60742h19.9482v48.0977h-19.9482c-2.53906 0 -4.61816 2.07812 -4.61816 4.61816v50.7188c0 2.53906 2.0791 4.60742 4.61816 4.60742h19.9375v24.5762c0 21.6475 17.7256 39.373 39.3936 39.373h340.767zM168.396 360.366h-14.7969
c0 -39.3525 32.8398 -39.3525 56.7305 -39.3525c29.8496 0 41.9424 -2.23242 41.9424 -24.5859h14.8486c0 39.4033 -32.8301 39.4033 -56.791 39.4033c-29.7783 0 -41.9336 2.18066 -41.9336 24.5352zM274.534 250.573c0 16.373 -6.66602 29.5928 -14.7861 29.6035
c-8.19238 0 -14.8691 -13.2197 -14.8691 -29.6035c0 -16.3232 6.67676 -29.6045 14.8691 -29.6045c8.12012 0 14.7861 13.2812 14.7861 29.6045zM358.4 118.979v85.6367c0 44.0732 -30.5049 81.0605 -71.3115 91.8125c1.40234 -4.25 2.22168 -8.85742 2.22168 -13.6807
v-64.2871c0 -18.0732 -10.5059 -33.085 -24.2998 -36.2803c0.0205078 -0.214844 0.164062 -0.399414 0.164062 -0.675781v-51.6406c0 -3 -2.45703 -5.45801 -5.50879 -5.45801c-3 0 -5.45801 2.45801 -5.45801 5.45801v51.6406
c0 0.276367 0.132812 0.460938 0.15332 0.675781c-13.7832 3.20508 -24.3096 18.207 -24.3096 36.2803v64.2871c0 4.82324 0.808594 9.43066 2.22168 13.6807c-40.7852 -10.752 -71.29 -47.7393 -71.29 -91.8125v-85.6367c0 -52.4492 42.9053 -95.3545 95.334 -95.3545
h6.72754c52.4492 0 95.3555 42.915 95.3555 95.3545z" />
    <glyph glyph-name="uniF10A" unicode="&#xf10a;" 
d="M475.867 279.64c20.3809 0 36.1328 -16.5205 36.1328 -36.9014v-210.259c0 -17.6201 -13.5146 -31.9033 -31.1348 -31.9033h-0.770508c-17.6182 0 -32.6709 14.2832 -32.6709 31.9033v41.8984h-382.848v-41.8984c0 -17.6201 -13.5146 -31.9033 -31.1348 -31.9033
h-0.770508c-17.6172 0 -32.6709 14.2832 -32.6709 31.9033v314.043c0 20.3809 17.29 36.9014 37.6689 36.9014h13.8379c20.3809 0 36.1328 -16.5205 36.1328 -36.9014v-67.2012c2.30664 0.189453 3.81445 0.318359 5.38086 0.318359h32.2881
c20.3809 0 36.1328 -16.5205 36.1328 -36.9014v-11.5312h36.9014v11.5312c0 20.3809 17.29 36.9014 37.6689 36.9014h239.855z" />
    <glyph glyph-name="uniF112" unicode="&#xf112;" 
d="M439.16 34.3438l-11.7285 11.3125l57.9199 58.3438h-413.352v16h413.352l-57.9199 58.3438l11.7285 11.3125l72.8398 -72v-11.3125zM73.5039 349.656l12.0645 -11.3125l-57.5928 -58.3438h412.024v-16h-412.024l57.5928 -58.3438l-12.0645 -11.3125l-73.5039 72v11.3125z
" />
    <glyph glyph-name="uniF10E" unicode="&#xf10e;" 
d="M427.6 196.809c7.78027 0 14.2188 -6.41113 14.2188 -14.7676v-216.477c0 -7.78418 -6.43848 -14.252 -14.2188 -14.252h-133.618c-8.31738 0 -14.7568 6.46777 -14.7568 14.252v82.3672h-46.6826v-82.3672c0 -7.78418 -6.43945 -14.252 -14.2188 -14.252h-134.156
c-7.77832 0 -14.2178 6.46777 -14.2178 14.252v209.78c0 7.78516 6.43945 14.2529 14.2178 14.2529c8.32324 0 14.7568 -6.46777 14.7568 -14.2529v-195.013h104.374v82.3662c0 7.72852 6.70312 14.4824 15.0254 14.4824h75.6582
c7.78516 0 14.2246 -6.75488 14.2246 -14.4824v-82.3662h104.638v201.71c0 8.35547 6.44043 14.7666 14.7559 14.7666zM507.821 185.304c5.76953 -5.83887 5.36816 -15.5693 0 -20.9492c-2.9541 -2.4043 -6.43945 -3.77832 -10.4639 -3.77832
c-4.56152 0 -8.05957 1.37402 -10.4629 3.77832l-230.741 232.904l-231.279 -230.729c-5.78711 -5.78027 -15.0254 -6.18164 -20.3887 0c-6.16992 5.32324 -5.78711 14.5967 0 20.3779l241.204 241.203c2.94824 2.91992 6.43945 4.58008 10.4639 4.58008
c3.48633 0 6.98242 -1.60352 9.9248 -4.58008l96.0527 -96.6191v50.4844c0 8.2998 6.43848 14.7109 14.2227 14.7109c8.31738 0 15.0254 -6.41016 15.0254 -14.7109v-79.7334z" />
    <glyph glyph-name="uniF100" unicode="&#xf100;" 
d="M0 213.942v234.058h234.058v-234.058h-234.058zM277.942 213.942v234.058h234.058v-234.058h-234.058zM0 -64v234.058h234.058v-234.058h-234.058zM277.942 -64v234.058h234.058v-234.058h-234.058z" />
    <glyph glyph-name="uniF111" unicode="&#xf111;" 
d="M240 -32c8.83105 0 15.999 -7.16699 15.998 -15.999c0 -8.83105 -7.16699 -16 -16 -16h-223.998c-8.83105 0 -16 7.16797 -16 16v479.998c0 8.83203 7.16895 16 16 16h224c8.83105 0 15.999 -7.16895 15.999 -16s-7.16699 -15.999 -15.999 -15.999h-208v-448h208z
M507.358 203.168c6.22461 -6.20801 6.16016 -16.624 -0.015625 -22.8486l-110.384 -111.983c-6.24023 -6.32031 -16.3682 -6.32031 -22.624 0c-6.25684 6.30371 -6.25684 16.5273 0 22.8477l83.2002 84.4004h-329.487c-8.83105 0 -15.999 7.23145 -15.999 16.1602
c0 8.92773 7.16699 16.1602 15.999 16.1602h329.487l-83.2002 84.4004c-6.25684 6.30371 -6.25684 16.543 0 22.8477c6.24023 6.30371 16.3682 6.31934 22.624 0z" />
    <glyph glyph-name="uniF101" unicode="&#xf101;" 
d="M486.461 6.08594h-342.372c-14.1113 0 -25.5479 11.4365 -25.5479 25.5469c0 14.1113 11.4365 25.5479 25.5479 25.5479h342.363c14.1113 0 25.5479 -11.4365 25.5479 -25.5479c0 -14.1104 -11.4287 -25.5469 -25.5391 -25.5469zM486.461 166.448h-342.372
c-14.1113 0 -25.5479 11.4365 -25.5479 25.5479c0 14.1104 11.4365 25.5469 25.5479 25.5469h342.363c14.1113 0 25.5479 -11.4365 25.5479 -25.5469c0.00878906 -14.1113 -11.4287 -25.5479 -25.5391 -25.5479zM486.461 326.811h-342.372
c-14.1113 0 -25.5479 11.4365 -25.5479 25.5479c0 14.1104 11.4365 25.5479 25.5479 25.5479h342.363c14.1113 0 25.5479 -11.4375 25.5479 -25.5479c0 -14.1113 -11.4287 -25.5479 -25.5391 -25.5479zM0 350.383c0 18.9492 15.3613 34.3105 34.3105 34.3105
s34.3105 -15.3613 34.3105 -34.3105s-15.3613 -34.3105 -34.3105 -34.3105s-34.3105 15.3613 -34.3105 34.3105zM0 191.996c0 18.9492 15.3613 34.3105 34.3105 34.3105s34.3105 -15.3613 34.3105 -34.3105s-15.3613 -34.3105 -34.3105 -34.3105
s-34.3105 15.3613 -34.3105 34.3105zM0 33.6094c0 18.9492 15.3613 34.3096 34.3105 34.3096s34.3105 -15.3604 34.3105 -34.3096s-15.3613 -34.3105 -34.3105 -34.3105s-34.3105 15.3613 -34.3105 34.3105z" />
    <glyph glyph-name="uniF11C" unicode="&#xf11c;" 
d="M512 208.879v-33.7578h-239.121v-239.121h-33.7578v239.121h-239.121v33.7578h239.121v239.121h33.7578v-239.121h239.121z" />
    <glyph glyph-name="uniF11A" unicode="&#xf11a;" 
d="M500.363 378.182c6.42383 0 11.6367 -5.20117 11.6367 -11.6357v-349.092c0 -6.43457 -5.21289 -11.6357 -11.6367 -11.6357h-488.727c-6.43555 0 -11.6367 5.20117 -11.6367 11.6357v349.092c0 6.43457 5.20117 11.6357 11.6367 11.6357h488.727zM488.728 57.2393
v297.67h-465.455v-297.67l144.151 144.14l16.4541 -16.4541l-155.834 -155.834h455.912l-155.834 155.834l16.4541 16.4541zM465.21 354.909h23.5176v-9.39062l-224.501 -224.5c-4.5498 -4.5498 -11.9033 -4.5498 -16.4531 0l-224.501 224.5v9.39062h23.5176l209.21 -209.21
z" />
    <glyph glyph-name="uniF118" unicode="&#xf118;" 
d="M0 167.619v48.7617h512v-48.7617h-512z" />
    <glyph glyph-name="uniF113" unicode="&#xf113;" 
d="M480.36 -46.7422c4.76465 0 8.62891 -3.86133 8.62891 -8.62891c0 -4.7666 -3.86328 -8.62891 -8.62891 -8.62891h-448.721c-4.76465 0 -8.62891 3.86328 -8.62891 8.62988c0 4.76758 3.86328 8.62891 8.62891 8.62891h14.3848v325.034
c0 4.7666 3.8623 8.62891 8.62891 8.62891h71.9102v71.9102c0 4.7666 3.8623 8.62891 8.62891 8.62891h25.8877v37.3926c0 4.76758 3.86328 8.62988 8.62891 8.62988h37.3926v25.8877c0 4.7666 3.86426 8.62891 8.62988 8.62891c4.76465 0 8.62891 -3.8623 8.62891 -8.62891
v-25.8877h37.3936c4.76465 0 8.62891 -3.8623 8.62891 -8.62988v-37.3926h17.2578v37.3926c0 4.76758 3.86328 8.62988 8.62891 8.62988h161.079c4.76562 0 8.62891 -3.8623 8.62891 -8.62988v-451.596h14.3828zM178.337 396.225v-28.7637h74.7861v28.7637h-74.7861z
M149.573 -46.7422v28.7646h-28.7646v-28.7646h5.75293v14.3818c0 4.76758 3.86426 8.62891 8.62988 8.62891c4.76465 0 8.62891 -3.86133 8.62891 -8.62891v-14.3818h5.75293zM207.101 174.742v94.9209h-143.819v-316.405h40.2695v37.3936
c0 4.7666 3.86328 8.62891 8.62891 8.62891h46.0225c4.76465 0 8.62891 -3.8623 8.62891 -8.62891v-37.3936h40.2695v206.64v14.8447zM215.73 286.921c4.76562 0 8.62988 -3.8623 8.62988 -8.62988v-2.87598h25.8877c4.76465 0 8.62891 -3.8623 8.62891 -8.62891
c0 -4.76758 -3.86328 -8.62891 -8.62891 -8.62891h-25.8877v-28.7646h25.8877c4.76465 0 8.62891 -3.86133 8.62891 -8.62891c0 -4.7666 -3.86328 -8.62891 -8.62891 -8.62891h-25.8877v-28.7637h63.2793v166.831h-143.819v-63.2812h71.9102zM368.18 -46.7422v212.854
h-143.819v-6.21484v-206.64h143.819zM448.719 -46.7422h0.000976562v442.967h-143.819v-37.3936v-175.459h28.7637v2.87598c0 4.7666 3.86426 8.62891 8.62891 8.62891s8.62891 -3.8623 8.62891 -8.62891v-2.87598h17.2578v2.87598
c0 4.7666 3.86426 8.62891 8.62891 8.62891c4.76562 0 8.62988 -3.8623 8.62988 -8.62891v-11.5059v-221.484h63.2803zM261.753 -29.4854c-4.76562 0 -8.62891 3.86328 -8.62891 8.62793v161.079c0 4.76758 3.86426 8.62891 8.62891 8.62891
s8.62891 -3.86133 8.62891 -8.62891v-161.078c0 -4.76465 -3.86328 -8.62891 -8.62891 -8.62891zM296.27 -29.4854c-4.76562 0 -8.62988 3.86328 -8.62891 8.62793v161.079c0 4.76758 3.86426 8.62891 8.62891 8.62891c4.76562 0 8.62988 -3.86133 8.62988 -8.62891
v-161.078c0 -4.76465 -3.86328 -8.62891 -8.62988 -8.62891zM330.786 -29.4854c-4.76465 0 -8.62891 3.86328 -8.62891 8.62793v161.079c0 4.76758 3.86426 8.62891 8.62891 8.62891s8.62891 -3.86133 8.62891 -8.62891v-161.078
c0 -4.76465 -3.86328 -8.62891 -8.62891 -8.62891zM342.292 338.697c-4.76562 0 -8.62891 3.86133 -8.62891 8.62793v11.5059c0 4.7666 3.86426 8.62891 8.62891 8.62891s8.62891 -3.8623 8.62891 -8.62891v-11.5049c0 -4.76758 -3.86328 -8.62891 -8.62891 -8.62891z
M376.809 338.697c-4.76562 0 -8.62891 3.86133 -8.62891 8.62793v11.5059c0 4.7666 3.86426 8.62891 8.62891 8.62891c4.76562 0 8.62988 -3.8623 8.62988 -8.62891v-11.5049c0 -4.76758 -3.86328 -8.62891 -8.62988 -8.62891zM411.326 338.697
c-4.7666 0 -8.62891 3.86133 -8.62891 8.62793v11.5059c0 4.7666 3.86328 8.62891 8.62891 8.62891c4.76465 0 8.62891 -3.8623 8.62891 -8.62891v-11.5049c0 -4.76758 -3.86328 -8.62891 -8.62891 -8.62891zM342.292 281.169c-4.76562 0 -8.62891 3.8623 -8.62891 8.62891
v11.5059c0 4.76758 3.86426 8.62891 8.62891 8.62891s8.62891 -3.86133 8.62891 -8.62891v-11.5059c0 -4.7666 -3.86328 -8.62891 -8.62891 -8.62891zM376.809 281.169c-4.76562 0 -8.62891 3.8623 -8.62891 8.62891v11.5059c0 4.76758 3.86426 8.62891 8.62891 8.62891
c4.76562 0 8.62988 -3.86133 8.62988 -8.62891v-11.5059c0 -4.7666 -3.86328 -8.62891 -8.62988 -8.62891zM411.326 281.169c-4.7666 0 -8.62891 3.8623 -8.62891 8.62891v11.5059c0 4.76758 3.86328 8.62891 8.62891 8.62891c4.76465 0 8.62891 -3.86133 8.62891 -8.62891
v-11.5059c0 -4.7666 -3.86328 -8.62891 -8.62891 -8.62891zM342.292 223.64c-4.76562 0 -8.62891 3.86328 -8.62891 8.62891v11.5068c0 4.7666 3.86426 8.62891 8.62891 8.62891s8.62891 -3.8623 8.62891 -8.62891v-11.5068c0 -4.7666 -3.86328 -8.62891 -8.62891 -8.62891z
M376.809 223.64c-4.76562 0 -8.62891 3.86328 -8.62891 8.62891v11.5068c0 4.7666 3.86426 8.62891 8.62891 8.62891c4.76562 0 8.62988 -3.8623 8.62988 -8.62891v-11.5068c0 -4.7666 -3.86328 -8.62891 -8.62988 -8.62891zM411.326 223.64
c-4.7666 0 -8.62891 3.86328 -8.62891 8.62891v11.5068c0 4.7666 3.86328 8.62891 8.62891 8.62891c4.76465 0 8.62891 -3.8623 8.62891 -8.62891v-11.5068c0 -4.7666 -3.86328 -8.62891 -8.62891 -8.62891zM100.674 200.629c-4.76465 0 -8.62891 3.86328 -8.62891 8.62891
v11.5059c0 4.76758 3.86426 8.62891 8.62891 8.62891c4.76562 0 8.62891 -3.86133 8.62891 -8.62891v-11.5059c0 -4.7666 -3.8623 -8.62891 -8.62891 -8.62891zM135.191 200.629c-4.7666 0 -8.62988 3.86328 -8.62988 8.62891v11.5059
c0 4.76758 3.86426 8.62891 8.62988 8.62891c4.76465 0 8.62891 -3.86133 8.62891 -8.62891v-11.5059c0 -4.7666 -3.86328 -8.62891 -8.62891 -8.62891zM169.708 200.629c-4.76562 0 -8.62891 3.86328 -8.62891 8.62891v11.5059c0 4.76758 3.86426 8.62891 8.62891 8.62891
s8.62891 -3.86133 8.62891 -8.62891v-11.5059c0 -4.7666 -3.86328 -8.62891 -8.62891 -8.62891zM100.674 143.101c-4.76465 0 -8.62891 3.86328 -8.62891 8.62988v11.5059c0 4.7666 3.86426 8.62891 8.62891 8.62891c4.76562 0 8.62891 -3.8623 8.62891 -8.62891v-11.5059
c0 -4.76758 -3.8623 -8.62988 -8.62891 -8.62988zM135.191 143.101c-4.7666 0 -8.62988 3.86328 -8.62988 8.62988v11.5059c0 4.7666 3.86426 8.62891 8.62988 8.62891c4.76465 0 8.62891 -3.8623 8.62891 -8.62891v-11.5059
c0 -4.76758 -3.86328 -8.62988 -8.62891 -8.62988zM169.708 143.101c-4.76562 0 -8.62891 3.86328 -8.62891 8.62988v11.5059c0 4.7666 3.86426 8.62891 8.62891 8.62891s8.62891 -3.8623 8.62891 -8.62891v-11.5059c0 -4.76758 -3.86328 -8.62988 -8.62891 -8.62988z
M100.674 85.5732c-4.76465 0 -8.62891 3.86133 -8.62891 8.62891v11.5059c0 4.7666 3.86426 8.62891 8.62891 8.62891c4.76562 0 8.62891 -3.8623 8.62891 -8.62891v-11.5059c0 -4.76758 -3.8623 -8.62891 -8.62891 -8.62891zM135.191 85.5732
c-4.7666 0 -8.62988 3.86133 -8.62988 8.62891v11.5059c0 4.7666 3.86426 8.62891 8.62988 8.62891c4.76465 0 8.62891 -3.8623 8.62891 -8.62891v-11.5059c0 -4.76758 -3.86328 -8.62891 -8.62891 -8.62891zM169.708 85.5732c-4.76562 0 -8.62891 3.86133 -8.62891 8.62891
v11.5059c0 4.7666 3.86426 8.62891 8.62891 8.62891s8.62891 -3.8623 8.62891 -8.62891v-11.5059c0 -4.76758 -3.86328 -8.62891 -8.62891 -8.62891zM100.674 28.0449c-4.76465 0 -8.62891 3.8623 -8.62891 8.62891v11.5059c0 4.76758 3.86426 8.62891 8.62891 8.62891
c4.76562 0 8.62891 -3.86133 8.62891 -8.62891v-11.5059c0 -4.7666 -3.8623 -8.62891 -8.62891 -8.62891zM135.191 28.0449c-4.7666 0 -8.62988 3.8623 -8.62988 8.62891v11.5059c0 4.76758 3.86426 8.62891 8.62988 8.62891c4.76465 0 8.62891 -3.86133 8.62891 -8.62891
v-11.5059c0 -4.7666 -3.86328 -8.62891 -8.62891 -8.62891zM169.708 28.0449c-4.76562 0 -8.62891 3.8623 -8.62891 8.62891v11.5059c0 4.76758 3.86426 8.62891 8.62891 8.62891s8.62891 -3.86133 8.62891 -8.62891v-11.5059
c0 -4.7666 -3.86328 -8.62891 -8.62891 -8.62891zM411.326 166.112c-4.7666 0 -8.62891 3.8623 -8.62891 8.62891v11.5059c0 4.7666 3.86328 8.62891 8.62891 8.62891c4.76465 0 8.62891 -3.8623 8.62891 -8.62891v-11.5059c0 -4.76758 -3.86328 -8.62891 -8.62891 -8.62891
zM411.326 108.584c-4.7666 0 -8.62891 3.86328 -8.62891 8.62891v11.5059c0 4.76758 3.86328 8.62891 8.62891 8.62891c4.76465 0 8.62891 -3.86133 8.62891 -8.62891v-11.5059c0 -4.7666 -3.86328 -8.62891 -8.62891 -8.62891zM411.326 51.0557
c-4.7666 0 -8.62891 3.86328 -8.62891 8.62891v11.5068c0 4.7666 3.86328 8.62891 8.62891 8.62891c4.76465 0 8.62891 -3.8623 8.62891 -8.62891v-11.5068c0 -4.7666 -3.86328 -8.62891 -8.62891 -8.62891zM411.326 -6.47168c-4.7666 0 -8.62891 3.8623 -8.62891 8.62891
v11.5059c0 4.7666 3.86328 8.62891 8.62891 8.62891c4.76465 0 8.62891 -3.8623 8.62891 -8.62891v-11.5059c0 -4.76758 -3.86328 -8.62891 -8.62891 -8.62891zM258.876 312.809c0 -4.7666 -3.86328 -8.62891 -8.62891 -8.62891h-69.0342
c-4.76465 0 -8.62891 3.8623 -8.62891 8.62891c0 4.76758 3.86328 8.62988 8.62891 8.62988h69.0342c4.76465 0 8.62891 -3.8623 8.62891 -8.62988z" />
    <glyph glyph-name="uniF104" unicode="&#xf104;" 
d="M256 -64c-141.16 0 -256 114.84 -256 255.988c0 141.16 114.84 256.012 256 256.012s256 -114.84 256 -256.012s-114.84 -255.988 -256 -255.988zM256 430.639c-131.576 0 -238.639 -107.062 -238.639 -238.65s107.062 -238.65 238.639 -238.65
s238.639 107.062 238.639 238.65s-107.062 238.65 -238.639 238.65zM216.138 125.749c-2.22168 0 -4.44434 0.833008 -6.13379 2.53418l-50.1514 50.082c-3.3916 3.3916 -3.3916 8.88965 -0.0117188 12.2803c3.3916 3.40332 8.90039 3.3916 12.2803 0.0117188
l44.0166 -43.959l123.765 123.764c3.39062 3.3916 8.88867 3.3916 12.2803 0c3.39062 -3.39062 3.39062 -8.88867 0 -12.2803l-129.91 -129.898c-1.68945 -1.70117 -3.91211 -2.53418 -6.13477 -2.53418z" />
    <glyph glyph-name="uniF102" unicode="&#xf102;" 
d="M420.309 204.231c2.13379 -26.9912 -20.3887 -50.8975 -46.9375 -52.3672c-17.8789 -0.952148 -33.6523 7.7666 -43.1309 21.3584c-1.16309 0.0576172 -2.38379 0.25 -3.70996 0.65332c-4.42188 1.38379 -8.6416 3.09473 -12.7744 4.93066
c0.768555 -3.80566 1.54688 -7.6416 2.42188 -11.4668c1.77832 -7.75781 1.81738 -14.957 0.529297 -21.5029c11.7266 -56.9053 25.7129 -113.31 41.5439 -169.215c10.3047 -36.3447 -46.1104 -51.7432 -56.3574 -15.5244
c-13.5527 47.8506 -25.6738 96.0459 -36.2861 144.637c-0.807617 -0.0380859 -1.61523 0 -2.42188 0.0195312c-27.1836 -39.2188 -41.1221 -84.002 -33.5283 -133.016c5.71973 -36.873 -50.5986 -52.6943 -56.3564 -15.5332
c-10.9297 70.4482 6.65137 131.583 46.3115 187.189c-6.33398 28.4531 -10.8613 56.8857 -13.6016 85.5596c-23.4629 -17.043 -49.5898 -30.4131 -78.5996 -39.8525c-35.96 -11.708 -51.2334 44.7549 -15.5527 56.3662c35.873 11.6699 67.6133 31.8945 92.9707 59.3086
c11.9863 43.0723 78.1289 44.0625 94.0078 3.54688c1.04785 0.307617 2.05762 0.692383 3.14355 0.951172c12.2363 2.91309 24.5596 1.9707 36.5176 -0.941406c7.1709 4.68066 15.4658 7.6416 24.2324 8.1123c27.5391 1.5 50.1758 -19.9355 52.3193 -46.918
c1.75 -22.0986 3.49902 -44.1875 5.25879 -66.2959zM307.277 217.15c3.93066 -3.65234 8.27539 -6.82422 13.1016 -9.43945c-1.54785 19.1387 -3.05762 38.2666 -4.56641 57.4053c-0.480469 5.90137 0.279297 11.6211 1.95117 17.0137
c-5.33496 -0.15332 -10.4385 -1.2207 -15.2451 -3.30664c0.490234 -20.9258 2.04785 -41.3232 4.75879 -61.6729zM177.549 398.448c0 27.3672 22.1855 49.5518 49.5518 49.5518s49.5518 -22.1846 49.5518 -49.5518c0 -27.3662 -22.1855 -49.5508 -49.5518 -49.5508
s-49.5518 22.1846 -49.5518 49.5508z" />
    <glyph glyph-name="uniF109" unicode="&#xf109;" 
d="M388.485 448c17.874 0 32.4141 -14.541 32.415 -32.415v-447.171c0 -17.874 -14.541 -32.415 -32.415 -32.415h-264.97c-17.874 0 -32.415 14.542 -32.415 32.415v447.171c0 17.874 14.54 32.415 32.4141 32.415h264.971zM107.344 366.528v-338.604h297.313v338.604
h-297.313zM123.515 431.757c-8.91602 0 -16.1709 -7.25391 -16.1709 -16.1719v-38.2285h297.313v38.2285c0 8.91797 -7.25586 16.1719 -16.1719 16.1719h-264.971zM388.485 -47.7568c8.91602 0 16.1709 7.25391 16.1709 16.1719v48.6807h-297.313v-48.6807
c0 -8.91797 7.25586 -16.1719 16.1719 -16.1719h264.971zM256.001 9.91699c14.667 0 26.5996 -11.9346 26.5996 -26.6016c0 -14.666 -11.9336 -26.5996 -26.5996 -26.5996c-14.667 0 -26.6006 11.9316 -26.6006 26.5996s11.9326 26.6016 26.6006 26.6016zM256.001 -32.4551
c8.69629 0 15.7705 7.0752 15.7705 15.7705c0 8.69727 -7.07422 15.7725 -15.7705 15.7725c-8.69727 0 -15.7715 -7.0752 -15.7715 -15.7725c0 -8.69531 7.07422 -15.7705 15.7715 -15.7705zM219.183 396.406c-2.99121 0 -5.41504 2.42383 -5.41504 5.41406
s2.42383 5.41406 5.41504 5.41406h73.6357c2.99121 0 5.41504 -2.42383 5.41504 -5.41406s-2.42383 -5.41406 -5.41504 -5.41406h-73.6357zM199.693 396.406c-1.42871 0 -2.82617 0.573242 -3.83301 1.58105c-1.00684 1.01758 -1.58105 2.40332 -1.58105 3.83301
s0.574219 2.82617 1.58105 3.83301c1.0166 1.00781 2.4043 1.58105 3.83301 1.58105c1.41797 0 2.81445 -0.573242 3.82324 -1.58105c1.00684 -1.01758 1.5918 -2.40332 1.5918 -3.83301s-0.584961 -2.81543 -1.5918 -3.83301
c-1.00781 -1.00781 -2.4043 -1.58105 -3.82324 -1.58105z" />
    <glyph glyph-name="uniF105" unicode="&#xf105;" 
d="M328.533 251.733c0 -4.71094 -3.81445 -8.5332 -8.5332 -8.5332h-213.333c-4.71973 0 -8.5332 3.82227 -8.5332 8.5332c0 4.70996 3.81348 8.5332 8.5332 8.5332h213.333c4.71875 0 8.5332 -3.82324 8.5332 -8.5332zM106.667 311.467
c-4.71973 0 -8.5332 3.82324 -8.5332 8.5332s3.81348 8.5332 8.5332 8.5332h85.333c4.71875 0 8.5332 -3.82324 8.5332 -8.5332s-3.81445 -8.5332 -8.5332 -8.5332h-85.333zM268.8 192c4.71875 0 8.5332 -3.82324 8.5332 -8.5332
c0 -4.71094 -3.81445 -8.5332 -8.5332 -8.5332h-162.133c-4.71973 0 -8.5332 3.82227 -8.5332 8.5332c0 4.70996 3.81348 8.5332 8.5332 8.5332h162.133zM277.333 115.2c0 -4.71094 -3.81445 -8.5332 -8.5332 -8.5332h-162.133c-4.71973 0 -8.5332 3.82227 -8.5332 8.5332
c0 4.70996 3.81348 8.5332 8.5332 8.5332h162.133c4.71875 0 8.5332 -3.82324 8.5332 -8.5332zM106.667 55.4668h136.533c4.71875 0 8.5332 -3.82324 8.5332 -8.5332c0 -4.71094 -3.81445 -8.5332 -8.5332 -8.5332h-136.533c-4.71973 0 -8.5332 3.82227 -8.5332 8.5332
c0 4.70996 3.81348 8.5332 8.5332 8.5332zM29.8662 430.934v-477.867h256v-17.0664h-273.066v512h276.6l124.467 -124.467v-140.066h-17.0664v128h-119.467v119.467h-247.467zM294.4 418.867v-90.334h90.333zM490.667 -46.9336c4.71875 0 8.5332 -3.82227 8.5332 -8.5332
c0 -4.70996 -3.81445 -8.5332 -8.5332 -8.5332h-17.0674h-8.5332h-119.467h-8.5332h-17.0664c-4.71875 0 -8.5332 3.82324 -8.5332 8.5332c0 4.71094 3.81445 8.5332 8.5332 8.5332h17.0664v20.1387c0 30.166 15.7529 57.583 41.1904 73.7285
c-25.4463 16.1445 -41.1904 43.5625 -41.1904 73.7275v20.1387h-17.0664c-4.71875 0 -8.5332 3.82324 -8.5332 8.5332c0 4.71094 3.81445 8.5332 8.5332 8.5332h17.0664h8.5332h119.467h8.5332h17.0674c4.71875 0 8.5332 -3.82227 8.5332 -8.5332
c0 -4.70996 -3.81445 -8.5332 -8.5332 -8.5332h-17.0674v-20.1387c0 -30.165 -15.752 -57.583 -41.1904 -73.7275c25.4473 -16.1455 41.1904 -43.5625 41.1904 -73.7285v-20.1387h17.0674zM354.134 120.661c0 -28.3223 17.3477 -53.751 44.3555 -65.1943h13.6963
c27 11.4434 44.3477 36.8721 44.3477 65.1943v20.1387h-102.399v-20.1387zM354.134 -26.7949h-0.00878906v-20.1387h102.399v20.1387c0 28.3223 -17.3477 53.752 -44.3477 65.1953h-13.6953c-27 -11.4434 -44.3477 -36.873 -44.3477 -65.1953z" />
    <glyph glyph-name="uniF108" unicode="&#xf108;" 
d="M351.652 -33.4385l-214.325 213.929c-6.35059 6.34961 -6.35059 16.6699 0 23.0195l214.325 213.929c6.35059 6.35059 16.6699 6.35059 23.0205 0s6.35059 -16.6699 0 -23.0195l-202.419 -202.419l202.419 -202.419c6.35059 -6.34961 6.35059 -16.6689 0 -23.0195
c-3.1748 -3.17578 -7.14453 -4.7627 -11.5098 -4.7627c-4.36621 0 -8.33496 1.58691 -11.5107 4.7627z" />
    <glyph glyph-name="uniF10D" unicode="&#xf10d;" 
d="M496.347 301.588c7.57129 -7.57324 7.57129 -19.8486 0 -27.418l-218.597 -218.595l-168.149 168.148l218.596 218.598c7.57031 7.57129 19.8457 7.57031 27.416 0zM74.874 188.999l168.149 -168.15l-59.2197 -59.2227c-7.57031 -7.56641 -19.8457 -7.56934 -27.416 0
l-140.734 140.738c-7.57227 7.56934 -7.57227 19.8447 0 27.4131zM213.522 -64l46.4688 39.8945h226.077v-39.8945h-272.546z" />
    <glyph glyph-name="uniF103" unicode="&#xf103;" 
d="M256 -64c-68.3848 0 -132.698 26.623 -181.037 74.9629c-48.3398 48.3389 -74.9629 112.652 -74.9629 181.037s26.623 132.698 74.9629 181.037c48.3389 48.3398 112.652 74.9629 181.037 74.9629s132.698 -26.623 181.037 -74.9629
c48.3398 -48.3389 74.9629 -112.652 74.9629 -181.037s-26.623 -132.698 -74.9629 -181.037c-48.3389 -48.3398 -112.652 -74.9629 -181.037 -74.9629zM418.976 29.0244c43.4326 43.5371 67.4453 101.377 67.4453 162.976c0 57.2139 -20.7764 111.295 -58.6758 153.579
l-325.324 -325.324c42.2842 -37.8994 96.3652 -58.6758 153.579 -58.6758c61.5986 0 119.438 23.9082 162.976 67.4453zM93.0244 354.976c-43.4326 -43.5371 -67.4453 -101.377 -67.4453 -162.976c0 -57.3184 20.7764 -111.295 58.6758 -153.579l325.324 325.324
c-42.2842 37.8994 -96.2607 58.6758 -153.579 58.6758c-61.5986 0 -119.438 -24.0127 -162.976 -67.4453z" />
  </font>
</defs></svg>
